10-08-2018 Tem 1 arquivos para processar!
10-08-2018 Iniciando processamento...
10-08-2018 Processando Arquivo: 1-SENHAS_ALIMENTACAO_NORMAL_20072018_053807.txt
10-08-2018 Processando Arquivo: 10-SENHAS_COMBUSTIVEL_STV_20072018_053807.txt
10-08-2018 Processando Arquivo: 11-SENHAS_COMBUSTIVEL_FORTAL_20072018_053807.txt
10-08-2018 Processando Arquivo: 12-SENHAS_REFEICAO_STV_20072018_053807.txt
10-08-2018 Processando Arquivo: 13-SENHAS_ALIMENTACAO_STV_20072018_053807.txt
10-08-2018 Processando Arquivo: 14-SENHAS_REFEICAO_FORTAL_20072018_053807.txt
10-08-2018 Processando Arquivo: 15-SENHAS_ALIMENTACAO_FORTAL_20072018_053807.txt
10-08-2018 Processando Arquivo: 16-SENHAS_ALIM_BLOQ_20072018_053807.txt
10-08-2018 Processando Arquivo: 17-SENHAS_COM_BLOQ_20072018_053807.txt
10-08-2018 Processando Arquivo: 18-SENHAS_CHIP_ALIME_BLOQ_20072018_053807.txt
10-08-2018 Processando Arquivo: 19-SENHAS_CHIP_REFEI_BLOQ_20072018_053807.txt
10-08-2018 Processando Arquivo: 2-SENHAS_REFEICAO_NORMAL_20072018_053807.txt
10-08-2018 Processando Arquivo: 3-SENHAS_CHIP_ALIM_NORMAL_20072018_053807.txt
10-08-2018 Processando Arquivo: 4-SENHAS_CHIP_REF_NORMAL_20072018_053807.txt
10-08-2018 Processando Arquivo: 5-SENHAS_CULTURA_NORMAL_20072018_053807.txt
10-08-2018 Processando Arquivo: 6-SENHAS_REDE FECHADA_20072018_053807.txt
10-08-2018 Processando Arquivo: 7-SENHAS_COMBUSTIVEL_NORMAL_20072018_053807.txt
10-08-2018 Processando Arquivo: 8-SENHAS_ROTA_NORMAL_20072018_053807.txt
10-08-2018 Processando Arquivo: 9-SENHAS_SUPER_NORMAL_20072018_053807.txt
10-08-2018 Finalizando processamento...
