31-07-2018 Tem 1 arquivos para processar!
31-07-2018 Iniciando processamento...
31-07-2018 Processando Arquivo: SENHAS_ALIMENTACAO_NORMAL_20072018_053807.txt
31-07-2018 Processando Arquivo: SENHAS_CHIP_ALIMENTACAO_NORMAL_20072018_053502.txt
31-07-2018 Processando Arquivo: SENHAS_COMBUSTIVEL_NORMAL_20072018_053501.txt
31-07-2018 Finalizando processamento...
